labs/lab12/Lab12_simulation.vcd
$date
	Fri Apr 15 08:01:09 2022
$end
$version
	Icarus Verilog
$end
$timescale
	10ps
$end
$scope module main $end
$scope module ice40 $end
$var wire 1 ! blue $end
$var wire 1 " \c8_1.clk $end
$var wire 1 # \c8_1.enable $end
$var wire 8 $ \c8_1.out [7:0] $end
$var wire 1 % \c8_1.rst $end
$var wire 1 & green $end
$var wire 1 ' hz100 $end
$var wire 8 ( left [7:0] $end
$var wire 21 ) pb [20:0] $end
$var wire 1 * red $end
$var wire 8 + right [7:0] $end
$var wire 1 , rxclk $end
$var wire 8 - rxdata [7:0] $end
$var wire 1 . rxready $end
$var wire 8 / ss0 [7:0] $end
$var wire 8 0 ss1 [7:0] $end
$var wire 8 1 ss2 [7:0] $end
$var wire 8 2 ss3 [7:0] $end
$var wire 8 3 ss4 [7:0] $end
$var wire 8 4 ss5 [7:0] $end
$var wire 8 5 ss6 [7:0] $end
$var wire 8 6 ss7 [7:0] $end
$var wire 1 7 txclk $end
$var wire 8 8 txdata [7:0] $end
$var wire 1 9 txready $end
$var wire 1 : reset $end
$var wire 8 ; \c8_1.next_Q_SB_LUT4_O_I3 [7:0] $end
$var wire 4 < \c8_1.next_Q_SB_LUT4_O_I0 [3:0] $end
$var wire 8 = \c8_1.next_Q_SB_LUT4_O_7_I3 [7:0] $end
$var wire 8 > \c8_1.next_Q [7:0] $end
$var wire 8 ? \c8_1.Q [7:0] $end
$scope module c8_1.Q_SB_DFFR_Q $end
$var wire 1 ' C $end
$var wire 1 @ D $end
$var wire 1 A Dd $end
$var wire 1 : R $end
$var reg 1 B Q $end
$upscope $end
$scope module c8_1.Q_SB_DFFR_Q_1 $end
$var wire 1 ' C $end
$var wire 1 C D $end
$var wire 1 D Dd $end
$var wire 1 : R $end
$var reg 1 E Q $end
$upscope $end
$scope module c8_1.Q_SB_DFFR_Q_2 $end
$var wire 1 ' C $end
$var wire 1 F D $end
$var wire 1 G Dd $end
$var wire 1 : R $end
$var reg 1 H Q $end
$upscope $end
$scope module c8_1.Q_SB_DFFR_Q_3 $end
$var wire 1 ' C $end
$var wire 1 I D $end
$var wire 1 J Dd $end
$var wire 1 : R $end
$var reg 1 K Q $end
$upscope $end
$scope module c8_1.Q_SB_DFFR_Q_4 $end
$var wire 1 ' C $end
$var wire 1 L D $end
$var wire 1 M Dd $end
$var wire 1 : R $end
$var reg 1 N Q $end
$upscope $end
$scope module c8_1.Q_SB_DFFR_Q_5 $end
$var wire 1 ' C $end
$var wire 1 O D $end
$var wire 1 P Dd $end
$var wire 1 : R $end
$var reg 1 Q Q $end
$upscope $end
$scope module c8_1.Q_SB_DFFR_Q_6 $end
$var wire 1 ' C $end
$var wire 1 R D $end
$var wire 1 S Dd $end
$var wire 1 : R $end
$var reg 1 T Q $end
$upscope $end
$scope module c8_1.Q_SB_DFFR_Q_7 $end
$var wire 1 ' C $end
$var wire 1 U D $end
$var wire 1 V Dd $end
$var wire 1 : R $end
$var reg 1 W Q $end
$upscope $end
$scope module c8_1.next_Q_SB_LUT4_O $end
$var wire 1 X I0 $end
$var wire 1 Y I1 $end
$var wire 1 Z I2 $end
$var wire 1 [ I3 $end
$var wire 8 \ s3 [7:0] $end
$var wire 4 ] s2 [3:0] $end
$var wire 2 ^ s1 [1:0] $end
$var wire 1 _ O $end
$upscope $end
$scope module c8_1.next_Q_SB_LUT4_O_1 $end
$var wire 1 ` I0 $end
$var wire 1 a I1 $end
$var wire 1 b I2 $end
$var wire 1 c I3 $end
$var wire 1 d O $end
$var wire 2 e s1 [1:0] $end
$var wire 4 f s2 [3:0] $end
$var wire 8 g s3 [7:0] $end
$upscope $end
$scope module c8_1.next_Q_SB_LUT4_O_2 $end
$var wire 1 h I0 $end
$var wire 1 i I1 $end
$var wire 1 j I2 $end
$var wire 1 k I3 $end
$var wire 1 l O $end
$var wire 8 m s3 [7:0] $end
$var wire 4 n s2 [3:0] $end
$var wire 2 o s1 [1:0] $end
$upscope $end
$scope module c8_1.next_Q_SB_LUT4_O_3 $end
$var wire 1 p I0 $end
$var wire 1 q I1 $end
$var wire 1 r I2 $end
$var wire 1 s I3 $end
$var wire 1 t O $end
$var wire 8 u s3 [7:0] $end
$var wire 4 v s2 [3:0] $end
$var wire 2 w s1 [1:0] $end
$upscope $end
$scope module c8_1.next_Q_SB_LUT4_O_4 $end
$var wire 1 x I0 $end
$var wire 1 y I1 $end
$var wire 1 z I2 $end
$var wire 1 { I3 $end
$var wire 1 | O $end
$var wire 8 } s3 [7:0] $end
$var wire 4 ~ s2 [3:0] $end
$var wire 2 !" s1 [1:0] $end
$upscope $end
$scope module c8_1.next_Q_SB_LUT4_O_5 $end
$var wire 1 "" I0 $end
$var wire 1 #" I1 $end
$var wire 1 $" I2 $end
$var wire 1 %" I3 $end
$var wire 1 &" O $end
$var wire 8 '" s3 [7:0] $end
$var wire 4 (" s2 [3:0] $end
$var wire 2 )" s1 [1:0] $end
$upscope $end
$scope module c8_1.next_Q_SB_LUT4_O_6 $end
$var wire 1 *" I0 $end
$var wire 1 +" I1 $end
$var wire 1 ," I2 $end
$var wire 1 -" I3 $end
$var wire 1 ." O $end
$var wire 8 /" s3 [7:0] $end
$var wire 4 0" s2 [3:0] $end
$var wire 2 1" s1 [1:0] $end
$upscope $end
$scope module c8_1.next_Q_SB_LUT4_O_7 $end
$var wire 1 2" I0 $end
$var wire 1 3" I1 $end
$var wire 1 4" I2 $end
$var wire 1 5" I3 $end
$var wire 1 6" O $end
$var wire 8 7" s3 [7:0] $end
$var wire 4 8" s2 [3:0] $end
$var wire 2 9" s1 [1:0] $end
$upscope $end
$scope module c8_1.next_Q_SB_LUT4_O_7_I3_SB_LUT4_O $end
$var wire 1 :" I0 $end
$var wire 1 ;" I1 $end
$var wire 1 <" I2 $end
$var wire 1 =" I3 $end
$var wire 1 >" O $end
$var wire 2 ?" s1 [1:0] $end
$var wire 8 @" s3 [7:0] $end
$var wire 4 A" s2 [3:0] $end
$upscope $end
$scope module c8_1.next_Q_SB_LUT4_O_7_I3_SB_LUT4_O_1 $end
$var wire 1 B" I0 $end
$var wire 1 C" I1 $end
$var wire 1 D" I2 $end
$var wire 1 E" I3 $end
$var wire 1 F" O $end
$var wire 2 G" s1 [1:0] $end
$var wire 8 H" s3 [7:0] $end
$var wire 4 I" s2 [3:0] $end
$upscope $end
$scope module c8_1.next_Q_SB_LUT4_O_7_I3_SB_LUT4_O_2 $end
$var wire 1 J" I0 $end
$var wire 1 K" I1 $end
$var wire 1 L" I2 $end
$var wire 1 M" I3 $end
$var wire 1 N" O $end
$var wire 2 O" s1 [1:0] $end
$var wire 8 P" s3 [7:0] $end
$var wire 4 Q" s2 [3:0] $end
$upscope $end
$scope module c8_1.next_Q_SB_LUT4_O_7_I3_SB_LUT4_O_3 $end
$var wire 1 R" I0 $end
$var wire 1 S" I1 $end
$var wire 1 T" I2 $end
$var wire 1 U" I3 $end
$var wire 1 V" O $end
$var wire 2 W" s1 [1:0] $end
$var wire 8 X" s3 [7:0] $end
$var wire 4 Y" s2 [3:0] $end
$upscope $end
$scope module c8_1.next_Q_SB_LUT4_O_7_I3_SB_LUT4_O_4 $end
$var wire 1 Z" I0 $end
$var wire 1 [" I1 $end
$var wire 1 \" I2 $end
$var wire 1 ]" I3 $end
$var wire 1 ^" O $end
$var wire 2 _" s1 [1:0] $end
$var wire 8 `" s3 [7:0] $end
$var wire 4 a" s2 [3:0] $end
$upscope $end
$scope module c8_1.next_Q_SB_LUT4_O_7_I3_SB_LUT4_O_5 $end
$var wire 1 b" I0 $end
$var wire 1 c" I1 $end
$var wire 1 d" I2 $end
$var wire 1 e" I3 $end
$var wire 1 f" O $end
$var wire 2 g" s1 [1:0] $end
$var wire 8 h" s3 [7:0] $end
$var wire 4 i" s2 [3:0] $end
$upscope $end
$scope module c8_1.next_Q_SB_LUT4_O_I0_SB_LUT4_O $end
$var wire 1 j" I0 $end
$var wire 1 k" I1 $end
$var wire 1 l" I2 $end
$var wire 1 m" I3 $end
$var wire 8 n" s3 [7:0] $end
$var wire 4 o" s2 [3:0] $end
$var wire 2 p" s1 [1:0] $end
$var wire 1 q" O $end
$upscope $end
$scope module c8_1.next_Q_SB_LUT4_O_I0_SB_LUT4_O_1 $end
$var wire 1 r" I0 $end
$var wire 1 s" I1 $end
$var wire 1 t" I2 $end
$var wire 1 u" I3 $end
$var wire 8 v" s3 [7:0] $end
$var wire 4 w" s2 [3:0] $end
$var wire 2 x" s1 [1:0] $end
$var wire 1 y" O $end
$upscope $end
$scope module c8_1.next_Q_SB_LUT4_O_I3_SB_CARRY_CO $end
$var wire 1 z" CI $end
$var wire 1 {" CO $end
$var wire 1 |" I0 $end
$var wire 1 }" I1 $end
$upscope $end
$scope module c8_1.next_Q_SB_LUT4_O_I3_SB_CARRY_CO_1 $end
$var wire 1 ~" CI $end
$var wire 1 !# CO $end
$var wire 1 "# I0 $end
$var wire 1 ## I1 $end
$upscope $end
$scope module c8_1.next_Q_SB_LUT4_O_I3_SB_CARRY_CO_2 $end
$var wire 1 $# CI $end
$var wire 1 %# CO $end
$var wire 1 &# I0 $end
$var wire 1 '# I1 $end
$upscope $end
$scope module c8_1.next_Q_SB_LUT4_O_I3_SB_CARRY_CO_3 $end
$var wire 1 (# CI $end
$var wire 1 )# CO $end
$var wire 1 *# I0 $end
$var wire 1 +# I1 $end
$upscope $end
$scope module c8_1.next_Q_SB_LUT4_O_I3_SB_CARRY_CO_4 $end
$var wire 1 ,# CI $end
$var wire 1 -# CO $end
$var wire 1 .# I0 $end
$var wire 1 /# I1 $end
$upscope $end
$scope module c8_1.next_Q_SB_LUT4_O_I3_SB_CARRY_CO_5 $end
$var wire 1 0# CI $end
$var wire 1 1# CO $end
$var wire 1 2# I0 $end
$var wire 1 3# I1 $end
$upscope $end
$upscope $end
$upscope $end
$enddefinitions $end
#0
$dumpvars
03#
02#
01#
00#
0/#
0.#
0-#
0,#
0+#
0*#
0)#
0(#
0'#
0&#
0%#
0$#
0##
0"#
0!#
0~"
0}"
0|"
0{"
0z"
xy"
b0 x"
b0 w"
b0 v"
0u"
0t"
0s"
0r"
xq"
b0 p"
b0 o"
b0 n"
0m"
0l"
0k"
0j"
b110 i"
b10010110 h"
b10 g"
xf"
0e"
0d"
0c"
0b"
b110 a"
b10010110 `"
b10 _"
x^"
0]"
0\"
0["
0Z"
b110 Y"
b10010110 X"
b10 W"
xV"
0U"
0T"
0S"
0R"
b110 Q"
b10010110 P"
b10 O"
xN"
0M"
0L"
0K"
0J"
b110 I"
b10010110 H"
b10 G"
xF"
0E"
0D"
0C"
0B"
b110 A"
b10010110 @"
b10 ?"
x>"
0="
0<"
0;"
0:"
bx 9"
bx 8"
b0xxxxxx 7"
x6"
x5"
x4"
x3"
02"
bx 1"
bx 0"
b0xxxxxx /"
x."
x-"
x,"
x+"
0*"
bx )"
bx ("
b0xxxxxx '"
x&"
x%"
x$"
x#"
0""
bx !"
bx ~
b0xxxxxx }
x|
x{
xz
xy
0x
bx w
bx v
b0xxxxxx u
xt
xs
xr
xq
0p
bx o
bx n
b0xxxxxx m
xl
xk
xj
xi
0h
b11111111 g
b1111 f
b11 e
xd
0c
0b
0a
0`
x_
b0 ^
b0 ]
b1110000 \
0[
0Z
xY
xX
0W
xV
xU
0T
xS
xR
0Q
xP
xO
0N
xM
xL
0K
xJ
xI
0H
xG
xF
0E
xD
xC
0B
xA
x@
b0 ?
bx >
bzxxxxxxz =
b0xx <
b0 ;
0:
19
bx 8
x7
bx 6
bx 5
bx 4
bx 3
bx 2
bx 1
bx 0
bx /
0.
b0 -
x,
b0 +
x*
bx00000000000000000000 )
bx (
0'
x&
0%
b0 $
1#
0"
x!
$end
#730
b0 !"
b0 )"
b0 1"
b0 9"
b0 o
b0 w
b0 ~
b0 ("
b0 0"
b0 8"
b0 n
b0 v
b0 }
b0 '"
b0 /"
b0 7"
b0 m
b0 u
1U
0{
0%"
0-"
05"
0k
0s
0@
03"
0+"
0#"
0y
0q
0i
0X
04"
0,"
0$"
0z
0r
0j
0Y
1d
0>"
0F"
0N"
0V"
0^"
bz000000z =
0f"
b0xxxxxx1 >
0_
0q"
b0 <
0y"
#1460
0I
0L
0O
0R
0C
0F
0|
0&"
0."
06"
0l
b1 >
0t
#110000730
1V
0A
#110001460
0J
0M
0P
0S
0D
0G
#500000000
1%
1:
1"
1'
#500000541
b0 +
b0 $
b0 ?
0W
#1000000000
0"
0'
#1500000000
1"
1'
#2000000000
0"
0'
#2500000000
1"
1'
#3000000000
0"
0'
#3500000000
1"
1'
#4000000000
0"
0'
#4500000000
0%
0:
1"
1'
#5000000000
0"
0'
#5500000000
1"
1'
#5500000541
b1 x"
b1 W"
b0 e
b1001 Y"
b1 w"
b0 f
b0 g
b1101001 X"
b1 v"
1c
1U"
1u"
10#
b10 ;
b1 +
b1 $
b1 ?
1W
#5500001271
b11 9"
b11 8"
b111111 7"
14"
1,"
1$"
1z
1r
1j
1Y
15"
0U
b10 <
1y"
bz000001z =
1V"
b0 >
0d
#5500002001
1R
b10 >
16"
#5610001271
0V
#5610002001
1S
#6000000000
0"
0'
#6500000000
1"
1'
#6500000541
b0 x"
b11 e
b0 w"
b1111 f
b1 W"
b11111111 g
b10010110 X"
b0 v"
b1001 Y"
b1000000 n"
0c
0U"
0u"
00#
b0 ;
1T"
1m"
13#
0W
b10 +
b10 $
b10 ?
1T
#6500001271
b1111 8"
04"
0,"
0$"
0z
0r
0j
0Y
1U
b0 <
0y"
b11 >
1d
#6610001271
1V
#7000000000
0"
0'
#7500000000
1"
1'
#7500000541
b1 O"
b1001 Q"
b1 x"
b10 W"
b1101001 P"
b0 e
b110 Y"
b1 w"
1,#
1M"
b0 f
11#
b0 g
b1101001 X"
b1 v"
1c
1U"
1u"
10#
b110 ;
b11 +
b11 $
b11 ?
1W
#7500001271
b11 1"
b0 9"
b11 0"
b111111 /"
b0 8"
b0 7"
1-"
14"
1,"
1$"
1z
1r
1j
1Y
05"
0U
1N"
b10 <
1y"
bz000010z =
0V"
b10 >
0d
#7500002001
1O
0R
1."
b100 >
06"
#7610001271
0V
#7610002001
1P
0S
#8000000000
0"
0'
#8500000000
1"
1'
#8500000541
b10 G"
b110 I"
b0 x"
b10010110 H"
b10010110 P"
0(#
0E"
b11 e
b0 w"
0,#
0M"
0-#
b1111 f
01#
b10 W"
b1 O"
b11111111 g
b10010110 X"
b0 v"
b110 Y"
b0 n"
b1001 Q"
0c
0U"
0u"
00#
b0 ;
0T"
0m"
03#
1L"
1j"
1/#
0W
0T
b100 +
b100 $
b100 ?
1Q
#8500001271
b1111 0"
04"
0,"
0$"
0z
0r
0j
0Y
1U
b0 <
0y"
b101 >
1d
#8610001271
1V
#9000000000
0"
0'
#9500000000
1"
1'
#9500000541
b1 x"
b1 W"
b0 e
b1001 Y"
b1 w"
b0 f
b0 g
b1101001 X"
b1 v"
1c
1U"
1u"
10#
b10 ;
b101 +
b101 $
b101 ?
1W
#9500001271
b11 9"
b11 8"
b11 0"
b111111 7"
14"
1,"
1$"
1z
1r
1j
1Y
15"
0U
b10 <
1y"
bz000011z =
1V"
b100 >
0d
#9500002001
1R
b110 >
16"
#9610001271
0V
#9610002001
1S
#10000000000
0"
0'
#10500000000
1"
1'
#10500000541
b0 x"
b11 e
b0 w"
b1111 f
b1 W"
b11111111 g
b10010110 X"
b0 v"
b1001 Y"
b1000000 n"
0c
0U"
0u"
00#
b0 ;
1T"
1m"
13#
0W
b110 +
b110 $
b110 ?
1T
#10500001271
b1111 8"
b1111 0"
04"
0,"
0$"
0z
0r
0j
0Y
1U
b0 <
0y"
b111 >
1d
#10610001271
1V
#11000000000
0"
0'
#11500000000
1"
1'
#11500000541
b1 G"
b1001 I"
b1101001 H"
b10 O"
1(#
1E"
b110 Q"
b1 x"
1-#
b10 W"
b1101001 P"
b0 e
b110 Y"
b1 w"
1,#
1M"
b0 f
11#
b0 g
b1101001 X"
b1 v"
1c
1U"
1u"
10#
b1110 ;
b111 +
b111 $
b111 ?
1W
#11500001271
b11 )"
b0 1"
b0 9"
b11 ("
b111111 '"
b0 /"
b0 8"
b0 0"
b0 7"
1%"
0-"
14"
1,"
1$"
1z
1r
1j
1Y
05"
0U
1F"
0N"
b10 <
1y"
bz000100z =
0V"
b110 >
0d
#11500002001
1L
0O
0R
1&"
0."
b1000 >
06"
#11610001271
0V
#11610002001
1M
0P
0S
#12000000000
0"
0'
#12500000000
1"
1'
#12500000541
b10 ?"
b110 A"
b0 x"
b10010110 H"
b10010110 @"
b10010110 P"
0(#
0E"
0$#
0="
b11 e
b0 w"
0,#
0M"
0-#
0)#
b1111 f
01#
b10 W"
b10 O"
b1 G"
b11111111 g
b10010110 X"
b0 v"
b110 Y"
b0 n"
b110 Q"
b1001 I"
0c
0U"
0u"
00#
b0 ;
0T"
0m"
03#
0L"
0j"
0/#
1D"
1r"
1+#
0W
0T
0Q
b1000 +
b1000 $
b1000 ?
1N
#12500001271
b1111 ("
1U
04"
0,"
0$"
0z
0r
0j
0Y
b1001 >
1d
b0 <
0y"
#12610001271
1V
#13000000000
0"
0'
#13500000000
1"
1'
#13500000541
b1 x"
b1 W"
b0 e
b1001 Y"
b1 w"
b0 f
b0 g
b1101001 X"
b1 v"
1c
1U"
1u"
10#
b10 ;
b1001 +
b1001 $
b1001 ?
1W
#13500001271
b11 9"
b1111 8"
b111111 7"
15"
0U
bz000101z =
1V"
b1000 >
0d
#13500002001
1R
b1010 >
16"
#13610001271
0V
#13610002001
1S
#14000000000
0"
0'
#14500000000
1"
1'
#14500000541
b0 x"
b11 e
b0 w"
b1111 f
b1 W"
b11111111 g
b10010110 X"
b0 v"
b1001 Y"
b1000000 n"
0c
0U"
0u"
00#
b0 ;
1T"
1m"
13#
0W
b1010 +
b1010 $
b1010 ?
1T
#14500001271
1U
b1011 >
1d
#14610001271
1V
#15000000000
0"
0'
#15500000000
1"
1'
#15500000541
b1 O"
b1001 Q"
b1 x"
b10 W"
b1101001 P"
b0 e
b110 Y"
b1 w"
1,#
1M"
b0 f
11#
b0 g
b1101001 X"
b1 v"
1c
1U"
1u"
10#
b110 ;
b1011 +
b1011 $
b1011 ?
1W
#15500001271
b11 1"
b0 9"
b1111 0"
b0 8"
b111111 /"
b0 7"
1-"
05"
0U
1N"
bz000110z =
0V"
b1010 >
0d
#15500002001
1O
0R
1."
b1100 >
06"
#15610001271
0V
#15610002001
1P
0S
#16000000000
0"
0'
#16500000000
1"
1'
#16500000541
b10 ?"
b110 A"
b10010110 @"
b1 G"
0$#
0="
b1001 I"
0)#
b0 x"
b10010110 H"
b10010110 P"
0(#
0E"
b11 e
b0 w"
0,#
0M"
0-#
b1111 f
01#
b10 W"
b1 O"
b11111111 g
b10010110 X"
b0 v"
b110 Y"
b0 n"
b1001 Q"
0c
0U"
0u"
00#
b0 ;
0T"
0m"
03#
1L"
1j"
1/#
0W
0T
b1100 +
b1100 $
b1100 ?
1Q
#16500001271
1U
b1101 >
1d
#16610001271
1V
#17000000000
0"
0'
#17500000000
1"
1'
#17500000541
b1 x"
b1 W"
b0 e
b1001 Y"
b1 w"
b0 f
b0 g
b1101001 X"
b1 v"
1c
1U"
1u"
10#
b10 ;
b1101 +
b1101 $
b1101 ?
1W
#17500001271
b11 9"
b1111 8"
b111111 7"
15"
0U
bz000111z =
1V"
b1100 >
0d
#17500002001
1R
b1110 >
16"
#17610001271
0V
#17610002001
1S
#18000000000
0"
0'
#18500000000
1"
1'
#18500000541
b0 x"
b11 e
b0 w"
b1111 f
b1 W"
b11111111 g
b10010110 X"
b0 v"
b1001 Y"
b1000000 n"
0c
0U"
0u"
00#
b0 ;
1T"
1m"
13#
0W
b1110 +
b1110 $
b1110 ?
1T
#18500001271
1U
b1111 >
1d
#18610001271
1V
#19000000000
0"
0'
#19500000000
1"
1'
#19500000541
b1 ?"
b1001 A"
b1101001 @"
b10 G"
1$#
1="
b110 I"
1)#
b1101001 H"
b10 O"
1(#
1E"
b110 Q"
b1 x"
1-#
b10 W"
b1101001 P"
b0 e
b110 Y"
b1 w"
1,#
1M"
b0 f
11#
b0 g
b1101001 X"
b1 v"
1c
1U"
1u"
10#
b11110 ;
b1111 +
b1111 $
b1111 ?
1W
#19500001271
b11 !"
b0 )"
b0 1"
b0 9"
b1111 ~
b0 ("
b0 0"
b0 8"
b111111 }
b0 '"
b0 /"
b0 7"
1{
0%"
0-"
05"
0U
1>"
0F"
0N"
bz001000z =
0V"
b1110 >
0d
#19500002001
1I
0L
0O
0R
1|
0&"
0."
b10000 >
06"
#19610001271
0V
#19610002001
1J
0M
0P
0S
#20000000000
0"
0'
#20500000000
1"
1'
#20500000541
b10 g"
b110 i"
b10010110 H"
b10010110 @"
b10010110 h"
b10010110 P"
0(#
0E"
0$#
0="
0~"
0e"
b11 e
b0 w"
0,#
0M"
0-#
0)#
0%#
b1111 f
01#
b10 W"
b10 O"
b10 G"
b1 ?"
b11111111 g
b10010110 X"
b0 v"
b110 Y"
b0 n"
b110 Q"
b110 I"
b1001 A"
b0 x"
0c
0U"
0u"
00#
b0 ;
0T"
0m"
03#
0L"
0j"
0/#
0D"
0r"
0+#
1<"
1s"
1'#
0W
0T
0Q
0N
b10000 +
b10000 $
b10000 ?
1K
#20500001271
1U
b10001 >
1d
#20610001271
1V
#21000000000
0"
0'
#21500000000
1"
1'
#21500000541
b1 W"
b0 e
b1001 Y"
b1 w"
b0 f
b0 g
b1101001 X"
b1 v"
1c
1U"
1u"
10#
b10 ;
b10001 +
b10001 $
b10001 ?
1W
#21500001271
b11 9"
b1111 8"
b111111 7"
15"
0U
bz001001z =
1V"
b10000 >
0d
#21500002001
1R
b10010 >
16"
#21610001271
0V
#21610002001
1S
#22000000000
0"
0'
#22500000000
1"
1'
#22500000541
b11 e
b0 w"
b1111 f
b1 W"
b11111111 g
b10010110 X"
b0 v"
b1001 Y"
b1000000 n"
0c
0U"
0u"
00#
b0 ;
1T"
1m"
13#
0W
b10010 +
b10010 $
b10010 ?
1T
#22500001271
1U
b10011 >
1d
#22610001271
1V
#23000000000
0"
0'
#23500000000
1"
1'
#23500000541
b1 O"
b1001 Q"
b10 W"
b1101001 P"
b0 e
b110 Y"
b1 w"
1,#
1M"
b0 f
11#
b0 g
b1101001 X"
b1 v"
1c
1U"
1u"
10#
b110 ;
b10011 +
b10011 $
b10011 ?
1W
#23500001271
b11 1"
b0 9"
b1111 0"
b0 8"
b111111 /"
b0 7"
1-"
05"
0U
1N"
bz001010z =
0V"
b10010 >
0d
#23500002001
1O
0R
1."
b10100 >
06"
#23610001271
0V
#23610002001
1P
0S
#24000000000
0"
0'
#24500000000
1"
1'
#24500000541
b10 G"
b110 I"
b10010110 H"
b10010110 P"
0(#
0E"
b11 e
b0 w"
0,#
0M"
0-#
b1111 f
01#
b10 W"
b1 O"
b11111111 g
b10010110 X"
b0 v"
b110 Y"
b0 n"
b1001 Q"
0c
0U"
0u"
00#
b0 ;
0T"
0m"
03#
1L"
1j"
1/#
0W
0T
b10100 +
b10100 $
b10100 ?
1Q
#24500001271
1U
b10101 >
1d
#24610001271
1V
#25000000000
0"
0'
#25500000000
1"
1'
#25500000541
b1 W"
b0 e
b1001 Y"
b1 w"
b0 f
b0 g
b1101001 X"
b1 v"
1c
1U"
1u"
10#
b10 ;
b10101 +
b10101 $
b10101 ?
1W
#25500001271
b11 9"
b1111 8"
b111111 7"
15"
0U
bz001011z =
1V"
b10100 >
0d
#25500002001
1R
b10110 >
16"
#25610001271
0V
#25610002001
1S
#26000000000
0"
0'
#26500000000
1"
1'
#26500000541
b11 e
b0 w"
b1111 f
b1 W"
b11111111 g
b10010110 X"
b0 v"
b1001 Y"
b1000000 n"
0c
0U"
0u"
00#
b0 ;
1T"
1m"
13#
0W
b10110 +
b10110 $
b10110 ?
1T
#26500001271
1U
b10111 >
1d
#26610001271
1V
#27000000000
0"
0'
#27500000000
1"
1'
#27500000541
b1 G"
b1001 I"
b1101001 H"
b10 O"
1(#
1E"
b110 Q"
1-#
b10 W"
b1101001 P"
b0 e
b110 Y"
b1 w"
1,#
1M"
b0 f
11#
b0 g
b1101001 X"
b1 v"
1c
1U"
1u"
10#
b1110 ;
b10111 +
b10111 $
b10111 ?
1W
#27500001271
b11 )"
b0 1"
b0 9"
b1111 ("
b0 0"
b0 8"
b111111 '"
b0 /"
b0 7"
1%"
0-"
05"
0U
1F"
0N"
bz001100z =
0V"
b10110 >
0d
#27500002001
1L
0O
0R
1&"
0."
b11000 >
06"
#27610001271
0V
#27610002001
1M
0P
0S
#28000000000
0"
0'
#28500000000
1"
1'
#28500000541
b10 g"
b110 i"
b10010110 h"
b1 ?"
0~"
0e"
b1001 A"
0%#
b10010110 H"
b10010110 @"
b10010110 P"
0(#
0E"
0$#
0="
b11 e
b0 w"
0,#
0M"
0-#
0)#
b1111 f
01#
b10 W"
b10 O"
b1 G"
b11111111 g
b10010110 X"
b0 v"
b110 Y"
b0 n"
b110 Q"
b1001 I"
0c
0U"
0u"
00#
b0 ;
0T"
0m"
03#
0L"
0j"
0/#
1D"
1r"
1+#
0W
0T
0Q
b11000 +
b11000 $
b11000 ?
1N
#28500001271
1U
b11001 >
1d
#28610001271
1V
#29000000000
0"
0'
#29500000000
1"
1'
#29500000541
b1 W"
b0 e
b1001 Y"
b1 w"
b0 f
b0 g
b1101001 X"
b1 v"
1c
1U"
1u"
10#
b10 ;
b11001 +
b11001 $
b11001 ?
1W
#29500001271
b11 9"
b1111 8"
b111111 7"
15"
0U
bz001101z =
1V"
b11000 >
0d
#29500002001
1R
b11010 >
16"
#29610001271
0V
#29610002001
1S
#30000000000
0"
0'
#30500000000
1"
1'
#30500000541
b11 e
b0 w"
b1111 f
b1 W"
b11111111 g
b10010110 X"
b0 v"
b1001 Y"
b1000000 n"
0c
0U"
0u"
00#
b0 ;
1T"
1m"
13#
0W
b11010 +
b11010 $
b11010 ?
1T
#30500001271
1U
b11011 >
1d
#30610001271
1V
#31000000000
0"
0'
#31500000000
1"
1'
#31500000541
b1 O"
b1001 Q"
b10 W"
b1101001 P"
b0 e
b110 Y"
b1 w"
1,#
1M"
b0 f
11#
b0 g
b1101001 X"
b1 v"
1c
1U"
1u"
10#
b110 ;
b11011 +
b11011 $
b11011 ?
1W
#31500001271
b11 1"
b0 9"
b1111 0"
b0 8"
b111111 /"
b0 7"
1-"
05"
0U
1N"
bz001110z =
0V"
b11010 >
0d
#31500002001
1O
0R
1."
b11100 >
06"
#31610001271
0V
#31610002001
1P
0S
#32000000000
0"
0'
#32500000000
1"
1'
#32500000541
b10 g"
b110 i"
b10010110 h"
b1 ?"
0~"
0e"
b1001 A"
0%#
b10010110 @"
b1 G"
0$#
0="
b1001 I"
0)#
b10010110 H"
b10010110 P"
0(#
0E"
b11 e
b0 w"
0,#
0M"
0-#
b1111 f
01#
b10 W"
b1 O"
b11111111 g
b10010110 X"
b0 v"
b110 Y"
b0 n"
b1001 Q"
0c
0U"
0u"
00#
b0 ;
0T"
0m"
03#
1L"
1j"
1/#
0W
0T
b11100 +
b11100 $
b11100 ?
1Q
#32500001271
1U
b11101 >
1d
#32610001271
1V
#33000000000
0"
0'
#33500000000
1"
1'
#33500000541
b1 W"
b0 e
b1001 Y"
b1 w"
b0 f
b0 g
b1101001 X"
b1 v"
1c
1U"
1u"
10#
b10 ;
b11101 +
b11101 $
b11101 ?
1W
#33500001271
b11 9"
b1111 8"
b111111 7"
15"
0U
bz001111z =
1V"
b11100 >
0d
#33500002001
1R
b11110 >
16"
#33610001271
0V
#33610002001
1S
#34000000000
0"
0'
#34500000000
1"
1'
#34500000541
b11 e
b0 w"
b1111 f
b1 W"
b11111111 g
b10010110 X"
b0 v"
b1001 Y"
b1000000 n"
0c
0U"
0u"
00#
b0 ;
1T"
1m"
13#
0W
b11110 +
b11110 $
b11110 ?
1T
#34500001271
1U
b11111 >
1d
#34610001271
1V
#35000000000
0"
0'
#35500000000
1"
1'
#35500000541
b1 g"
b1001 i"
b1101001 h"
b10 ?"
1~"
1e"
b110 A"
1%#
b1101001 @"
b10 G"
1$#
1="
b110 I"
1)#
b1101001 H"
b10 O"
1(#
1E"
b110 Q"
1-#
b10 W"
b1101001 P"
b0 e
b110 Y"
b1 w"
1,#
1M"
b0 f
11#
b0 g
b1101001 X"
b1 v"
1c
1U"
1u"
10#
b111110 ;
b11111 +
b11111 $
b11111 ?
1W
#35500001271
b11 w
b0 !"
b0 )"
b0 1"
b0 9"
b1111 v
b0 ~
b0 ("
b0 0"
b0 8"
b111111 u
b0 }
b0 '"
b0 /"
b0 7"
1s
0{
0%"
0-"
05"
0U
1f"
0>"
0F"
0N"
bz010000z =
0V"
b11110 >
0d
#35500002001
1F
0I
0L
0O
0R
1t
0|
0&"
0."
b100000 >
06"
#35610001271
0V
#35610002001
1G
0J
0M
0P
0S
#36000000000
0"
0'
#36500000000
1"
1'
#36500000541
b10 _"
b110 a"
b10010110 H"
b10010110 @"
b10010110 h"
b10010110 `"
b10010110 P"
0(#
0E"
0$#
0="
0~"
0e"
0z"
0]"
b11 e
b0 w"
0,#
0M"
0-#
0)#
0%#
0!#
b1111 f
01#
b10 W"
b10 O"
b10 G"
b10 ?"
b1 g"
b11111111 g
b10010110 X"
b0 v"
b110 Y"
b0 n"
b110 Q"
b110 I"
b110 A"
b0 x"
b1001 i"
0c
0U"
0u"
00#
b0 ;
0T"
0m"
03#
0L"
0j"
0/#
0D"
0r"
0+#
0<"
0s"
0'#
1d"
1k"
1##
0W
0T
0Q
0N
0K
b100000 +
b100000 $
b100000 ?
1H
#36500001271
1U
b100001 >
1d
#36610001271
1V
#37000000000
0"
0'
#37500000000
1"
1'
